Quiz 3 answers
…
pokemon

## # A tibble: 696 x 9
##    species combat_power hit_points weight_kg weight_bin height_m height_bin
##    <chr>          <dbl>      <dbl>     <dbl> <chr>         <dbl> <chr>     
##  1 krabby            51         15      5.82 normal        0.36  normal    
##  2 geodude           85         23     20.9  normal        0.37  normal    
##  3 venonat          129         38     20.4  extra_sma    0.92  normal    
##  4 parase          171         32     19.2  extra_sma    0.87  normal    
##  5 eevee            172         37      4.18 extra_sma    0.25  normal    
##  6 voltorb          131        320     11.2  normal        0.48  normal    
##  7 shelld           96         21      3.49 normal        0.27  normal    
##  8 staryu            11         10     36.4  normal        0.8   normal    
##  9 nidora          112         30      9.49 normal        0.51  normal    
## 10 poliwag          156         35     11.2  normal        0.580 normal    
## #  with 686 more rows, and 2 more variables: fast_attack <chr>,
## #   charge_attack <chr>
…
## # A tibble: 1 x 2
##   height_bin  mean.combat
##   <chr>             <dbl>
## 1 extra_small        158.

2. Assume that the total awesomeness of a pokemon is the product of combat_power and hit_points. Which pokemon species has the highest awesomeness?

pokemon %>%
  group_by(species) %>%
  mutate(awesomeness = combat_power*hit_points) %>%
  arrange(desc(awesomeness)) 

## # A tibble: 696 x 10
## # Groups:   species [81]
##    species combat_power hit_points weight_kg weight_bin height_m height_bin
##    <chr>          <dbl>      <dbl>     <dbl> <chr>         <dbl> <chr>     
##  1 lapras          1636        161     163.  extra_sma     2.22 normal    
##  2 pinsir          1184         84      68.1 normal         1.61 normal    
##  3 chansey          328        291      39.7 normal         1.17 normal    
##  4 gyarad          955         94     177.  normal         5.58 normal    
##  5 fearow           954         83      40.6 normal         1.2  normal    
##  6 magmar           991         73      31.1 extra_sma     1.23 normal    
##  7 magmar           963         75      42.5 normal         1.28 normal    
##  8 electa          962         74      39.0 extra_lar     1.26 normal    
##  9 jiggly          486        146       4.9 normal         0.44 normal    
## 10 tangela          885         78      40.3 normal         1.1  normal    
## #  with 686 more rows, and 3 more variables: fast_attack <chr>,
## #   charge_attack <chr>, awesomeness <dbl>

pokemon %>%
  mutate(awesomeness = combat_power*hit_points) %>%
  arrange(desc(awesomeness)) %>%
  select(species, awesomeness, everything())

## # A tibble: 696 x 10
##    species awesomeness combat_power hit_points weight_kg weight_bin
##    <chr>         <dbl>        <dbl>      <dbl>     <dbl> <chr>     
##  1 lapras       263396         1636        161     163.  extra_sma
##  2 pinsir        99456         1184         84      68.1 normal    
##  3 chansey       95448          328        291      39.7 normal    
##  4 gyarad       89770          955         94     177.  normal    
##  5 fearow        79182          954         83      40.6 normal    
##  6 magmar        72343          991         73      31.1 extra_sma
##  7 magmar        72225          963         75      42.5 normal    
##  8 electa       71188          962         74      39.0 extra_lar
##  9 jiggly       70956          486        146       4.9 normal    
## 10 tangela       69030          885         78      40.3 normal    
## #  with 686 more rows, and 4 more variables: height_m <dbl>,
## #   height_bin <chr>, fast_attack <chr>, charge_attack <chr>
…
